…
```r
table_3 <- summarise(table_1, Avg_steps=mean(steps, na.rm = T), Median_steps=median(steps, na.rm = T))
print(table_3)
```

```
## # A tibble: 61 × 3
##        date_2 Avg_steps Median_steps
##        <date>     <dbl>        <dbl>
## 1  2012-10-01       NaN           NA
## 2  2012-10-02   0.43750            0
## 3  2012-10-03  39.41667            0
## 4  2012-10-04  42.06944            0
## 5  2012-10-05  46.15972            0
## 6  2012-10-06  53.54167            0
## 7  2012-10-07  38.24653            0
## 8  2012-10-08       NaN           NA
## 9  2012-10-09  44.48264            0
## 10 2012-10-10  34.37500            0
## # ... with 51 more rows
```
…
```r
table_6 <- summarise(table_4, Avg_steps=mean(steps_2, na.rm = T), Median_steps=median(steps_2, na.rm = T))
table_6
```

```
## # A tibble: 61 × 3
##        date_2 Avg_steps Median_steps
##        <date>     <dbl>        <dbl>
## 1  2012-10-01  37.38260     34.11321
## 2  2012-10-02   0.43750      0.00000
## 3  2012-10-03  39.41667      0.00000
## 4  2012-10-04  42.06944      0.00000
## 5  2012-10-05  46.15972      0.00000
## 6  2012-10-06  53.54167      0.00000
## 7  2012-10-07  38.24653      0.00000
## 8  2012-10-08  37.38260     34.11321
## 9  2012-10-09  44.48264      0.00000
## 10 2012-10-10  34.37500      0.00000
## # ... with 51 more rows
```
…
